EESchema Schematic File Version 4
EELAYER 30 0
EELAYER END
$Descr A4 11693 8268
encoding utf-8
Sheet 1 1
Title ""
Date ""
Rev ""
Comp ""
Comment1 ""
Comment2 ""
Comment3 ""
Comment4 ""
$EndDescr
$Comp
L tang_nano:tang_nano U1
U 1 1 5FC983F5
P 3500 3350
F 0 "U1" H 3475 4475 50  0000 C CNN
F 1 "tang_nano" H 3475 4384 50  0000 C CNN
F 2 "Package_DIP:DIP-40_W15.24mm" H 3500 3700 50  0001 C CNN
F 3 "" H 3500 3700 50  0001 C CNN
	1    3500 3350
	1    0    0    -1  
$EndComp
$Comp
L Device:R_POT_TRIM RV2
U 1 1 5FC9C0D5
P 4450 4200
F 0 "RV2" H 4381 4246 50  0000 R CNN
F 1 "20kΩ" H 4381 4155 50  0000 R CNN
F 2 "Potentiometer_THT:Potentiometer_ACP_CA9-V10_Vertical" H 4450 4200 50  0001 C CNN
F 3 "~" H 4450 4200 50  0001 C CNN
	1    4450 4200
	1    0    0    1   
$EndComp
$Comp
L Device:R_POT_TRIM RV4
U 1 1 5FC9C907
P 5550 4200
F 0 "RV4" H 5481 4246 50  0000 R CNN
F 1 "20kΩ" H 5481 4155 50  0000 R CNN
F 2 "Potentiometer_THT:Potentiometer_ACP_CA9-V10_Vertical" H 5550 4200 50  0001 C CNN
F 3 "~" H 5550 4200 50  0001 C CNN
	1    5550 4200
	1    0    0    -1  
$EndComp
$Comp
L Device:R_POT_TRIM RV1
U 1 1 5FC9CEA3
P 4150 4200
F 0 "RV1" H 4081 4246 50  0000 R CNN
F 1 "10kΩ" H 4081 4155 50  0000 R CNN
F 2 "Potentiometer_THT:Potentiometer_ACP_CA9-V10_Vertical" H 4150 4200 50  0001 C CNN
F 3 "~" H 4150 4200 50  0001 C CNN
	1    4150 4200
	1    0    0    -1  
$EndComp
$Comp
L Device:R_POT_TRIM RV3
U 1 1 5FC9CEA9
P 5150 4200
F 0 "RV3" H 5081 4246 50  0000 R CNN
F 1 "10kΩ" H 5081 4155 50  0000 R CNN
F 2 "Potentiometer_THT:Potentiometer_ACP_CA9-V10_Vertical" H 5150 4200 50  0001 C CNN
F 3 "~" H 5150 4200 50  0001 C CNN
	1    5150 4200
	1    0    0    1   
$EndComp
$Comp
L tang_nano:LM339N U2
U 1 1 5FCA0A53
P 5050 2850
F 0 "U2" H 5075 3465 50  0000 C CNN
F 1 "LM339N" H 5075 3374 50  0000 C CNN
F 2 "Package_DIP:DIP-14_W7.62mm" H 5050 3350 50  0001 C CNN
F 3 "" H 5050 3350 50  0001 C CNN
	1    5050 2850
	1    0    0    -1  
$EndComp
$Comp
L Connector:DB15_Female_HighDensity J1
U 1 1 5FCA3117
P 1400 3600
F 0 "J1" H 1400 4467 50  0000 C CNN
F 1 "DB15_Female_HighDensity" H 1400 4376 50  0000 C CNN
F 2 "Connector_PinHeader_2.54mm:PinHeader_1x15_P2.54mm_Vertical" H 450 4000 50  0001 C CNN
F 3 " ~" H 450 4000 50  0001 C CNN
	1    1400 3600
	1    0    0    -1  
$EndComp
$Comp
L Device:R R3
U 1 1 5FCA4525
P 950 3600
F 0 "R3" V 1157 3600 50  0000 C CNN
F 1 "270Ω" V 1066 3600 50  0000 C CNN
F 2 "Resistor_THT:R_Axial_DIN0204_L3.6mm_D1.6mm_P5.08mm_Horizontal" V 880 3600 50  0001 C CNN
F 3 "~" H 950 3600 50  0001 C CNN
	1    950  3600
	0    -1   -1   0   
$EndComp
$Comp
L Device:R R2
U 1 1 5FCA596D
P 950 3400
F 0 "R2" V 1157 3400 50  0000 C CNN
F 1 "270Ω" V 1066 3400 50  0000 C CNN
F 2 "Resistor_THT:R_Axial_DIN0204_L3.6mm_D1.6mm_P5.08mm_Horizontal" V 880 3400 50  0001 C CNN
F 3 "~" H 950 3400 50  0001 C CNN
	1    950  3400
	0    -1   -1   0   
$EndComp
$Comp
L Device:R R1
U 1 1 5FCA5B96
P 950 3200
F 0 "R1" V 743 3200 50  0000 C CNN
F 1 "270Ω" V 834 3200 50  0000 C CNN
F 2 "Resistor_THT:R_Axial_DIN0204_L3.6mm_D1.6mm_P5.08mm_Horizontal" V 880 3200 50  0001 C CNN
F 3 "~" H 950 3200 50  0001 C CNN
	1    950  3200
	0    1    1    0   
$EndComp
$Comp
L Device:R R4
U 1 1 5FCA622E
P 1850 3600
F 0 "R4" V 2057 3600 50  0000 C CNN
F 1 "100Ω" V 1966 3600 50  0000 C CNN
F 2 "Resistor_THT:R_Axial_DIN0204_L3.6mm_D1.6mm_P5.08mm_Horizontal" V 1780 3600 50  0001 C CNN
F 3 "~" H 1850 3600 50  0001 C CNN
	1    1850 3600
	0    -1   -1   0   
$EndComp
$Comp
L Device:R R5
U 1 1 5FCA675B
P 1850 3800
F 0 "R5" V 2057 3800 50  0000 C CNN
F 1 "100Ω" V 1966 3800 50  0000 C CNN
F 2 "Resistor_THT:R_Axial_DIN0204_L3.6mm_D1.6mm_P5.08mm_Horizontal" V 1780 3800 50  0001 C CNN
F 3 "~" H 1850 3800 50  0001 C CNN
	1    1850 3800
	0    -1   -1   0   
$EndComp
$Comp
L Connector:Conn_01x03_Male J2
U 1 1 5FCA9E48
P 4000 2850
F 0 "J2" H 4108 3131 50  0000 C CNN
F 1 "Conn_01x03_Male" H 4108 3040 50  0000 C CNN
F 2 "Connector_PinHeader_2.54mm:PinHeader_1x03_P2.54mm_Vertical" H 4000 2850 50  0001 C CNN
F 3 "~" H 4000 2850 50  0001 C CNN
	1    4000 2850
	1    0    0    -1  
$EndComp
$Comp
L Connector:Conn_01x03_Male J3
U 1 1 5FCAB8B2
P 6600 2850
F 0 "J3" H 6572 2782 50  0000 R CNN
F 1 "Conn_01x03_Male" H 6572 2873 50  0000 R CNN
F 2 "Connector_PinHeader_2.54mm:PinHeader_1x03_P2.54mm_Vertical" H 6600 2850 50  0001 C CNN
F 3 "~" H 6600 2850 50  0001 C CNN
	1    6600 2850
	-1   0    0    1   
$EndComp
Wire Wire Line
	800  3600 550  3600
Wire Wire Line
	550  3600 550  2450
Wire Wire Line
	550  2450 3050 2450
Wire Wire Line
	800  3400 600  3400
Wire Wire Line
	600  3400 600  2550
Wire Wire Line
	600  2550 3050 2550
Wire Wire Line
	800  3200 650  3200
Wire Wire Line
	650  3200 650  2650
Wire Wire Line
	650  2650 3050 2650
Wire Wire Line
	2000 3600 2000 2750
Wire Wire Line
	2000 2750 3050 2750
Wire Wire Line
	2000 3800 2050 3800
Wire Wire Line
	2050 3800 2050 2850
Wire Wire Line
	2050 2850 3050 2850
Wire Wire Line
	1100 3900 1100 4000
Wire Wire Line
	650  3500 650  3900
Wire Wire Line
	650  3900 1100 3900
Wire Wire Line
	650  3500 750  3500
Connection ~ 1100 3900
Wire Wire Line
	1100 3100 750  3100
Wire Wire Line
	750  3100 750  3300
Connection ~ 750  3500
Wire Wire Line
	750  3500 1100 3500
Wire Wire Line
	1100 3300 750  3300
Connection ~ 750  3300
Wire Wire Line
	750  3300 750  3500
Wire Wire Line
	4600 2550 3900 2550
Wire Wire Line
	3900 2650 4600 2650
Wire Wire Line
	5550 2650 5800 2650
Wire Wire Line
	5800 2650 5800 3650
Wire Wire Line
	5800 3650 3900 3650
Wire Wire Line
	3900 3550 5850 3550
Wire Wire Line
	5850 3550 5850 2550
Wire Wire Line
	5850 2550 5550 2550
Wire Wire Line
	4600 3150 4600 4200
Wire Wire Line
	5700 4200 5700 2850
Wire Wire Line
	5700 2850 5550 2850
Wire Wire Line
	5300 4200 5300 3400
Wire Wire Line
	5300 3400 5650 3400
Wire Wire Line
	5650 3400 5650 3050
Wire Wire Line
	5650 3050 5550 3050
Wire Wire Line
	4300 4200 4300 2950
Wire Wire Line
	4300 2950 4600 2950
Wire Wire Line
	4150 4350 4450 4350
Wire Wire Line
	4450 4350 4700 4350
Connection ~ 4450 4350
Wire Wire Line
	4450 4050 4150 4050
Connection ~ 4450 4050
Wire Wire Line
	4150 4350 3950 4350
Wire Wire Line
	3950 4350 3950 4250
Wire Wire Line
	3950 4250 3900 4250
Connection ~ 4150 4350
Wire Wire Line
	4800 4050 4800 4500
Wire Wire Line
	4800 4500 2950 4500
Wire Wire Line
	2950 4500 2950 4150
Wire Wire Line
	2950 4150 3050 4150
Connection ~ 4800 4050
Wire Wire Line
	4800 4050 4450 4050
Wire Wire Line
	1100 4000 1100 4500
Wire Wire Line
	1100 4500 2950 4500
Connection ~ 1100 4000
Connection ~ 2950 4500
Wire Wire Line
	6400 2950 6400 3150
Wire Wire Line
	6400 3150 5550 3150
Wire Wire Line
	6400 2750 6200 2750
Wire Wire Line
	6200 2750 6200 2950
Wire Wire Line
	6200 2950 5550 2950
Wire Wire Line
	6400 2850 5950 2850
Wire Wire Line
	5950 2850 5950 2750
Wire Wire Line
	5950 2750 5550 2750
Wire Wire Line
	4200 2750 4350 2750
Wire Wire Line
	4350 2750 4350 2850
Wire Wire Line
	4350 2850 4400 2850
Wire Wire Line
	4200 2950 4200 3050
Wire Wire Line
	4200 3050 4600 3050
Wire Wire Line
	5950 2850 5950 4050
Wire Wire Line
	5950 4050 5550 4050
Connection ~ 5950 2850
Connection ~ 5550 4050
Wire Wire Line
	4150 4050 4150 3000
Wire Wire Line
	4150 3000 4250 3000
Wire Wire Line
	4250 3000 4250 2850
Wire Wire Line
	4250 2850 4200 2850
Connection ~ 4150 4050
$Comp
L Device:R R8
U 1 1 5FCEEB02
P 6150 3400
F 0 "R8" H 6220 3446 50  0000 L CNN
F 1 "6k" H 6220 3355 50  0000 L CNN
F 2 "Resistor_THT:R_Axial_DIN0204_L3.6mm_D1.6mm_P5.08mm_Horizontal" V 6080 3400 50  0001 C CNN
F 3 "~" H 6150 3400 50  0001 C CNN
	1    6150 3400
	1    0    0    -1  
$EndComp
$Comp
L Device:R R9
U 1 1 5FCEEED9
P 6400 3400
F 0 "R9" H 6470 3446 50  0000 L CNN
F 1 "6kΩ" H 6470 3355 50  0000 L CNN
F 2 "Resistor_THT:R_Axial_DIN0204_L3.6mm_D1.6mm_P5.08mm_Horizontal" V 6330 3400 50  0001 C CNN
F 3 "~" H 6400 3400 50  0001 C CNN
	1    6400 3400
	1    0    0    -1  
$EndComp
$Comp
L Device:R R6
U 1 1 5FCF0966
P 4050 3300
F 0 "R6" H 4120 3346 50  0000 L CNN
F 1 "600Ω" H 4120 3255 50  0000 L CNN
F 2 "Resistor_THT:R_Axial_DIN0204_L3.6mm_D1.6mm_P5.08mm_Horizontal" V 3980 3300 50  0001 C CNN
F 3 "~" H 4050 3300 50  0001 C CNN
	1    4050 3300
	1    0    0    -1  
$EndComp
$Comp
L Device:R R7
U 1 1 5FCF096C
P 4400 3300
F 0 "R7" H 4470 3346 50  0000 L CNN
F 1 "600Ω" H 4470 3255 50  0000 L CNN
F 2 "Resistor_THT:R_Axial_DIN0204_L3.6mm_D1.6mm_P5.08mm_Horizontal" V 4330 3300 50  0001 C CNN
F 3 "~" H 4400 3300 50  0001 C CNN
	1    4400 3300
	1    0    0    -1  
$EndComp
Wire Wire Line
	6200 2750 6150 2750
Wire Wire Line
	6150 2750 6150 3250
Connection ~ 6200 2750
Wire Wire Line
	6400 3250 6400 3150
Connection ~ 6400 3150
Wire Wire Line
	6150 3550 6400 3550
Wire Wire Line
	6150 3550 6150 4350
Wire Wire Line
	6150 4350 5550 4350
Connection ~ 6150 3550
Connection ~ 5550 4350
Wire Wire Line
	4050 3150 4200 3150
Wire Wire Line
	4200 3150 4200 3050
Connection ~ 4200 3050
Wire Wire Line
	4400 3150 4400 2850
Connection ~ 4400 2850
Wire Wire Line
	4400 2850 4600 2850
Wire Wire Line
	4050 3450 4400 3450
Wire Wire Line
	4400 3450 4700 3450
Wire Wire Line
	4700 3450 4700 4350
Connection ~ 4400 3450
Connection ~ 4700 4350
Wire Wire Line
	4800 4050 5150 4050
Connection ~ 5150 4050
Wire Wire Line
	5150 4050 5550 4050
Wire Wire Line
	4700 4350 5150 4350
Connection ~ 5150 4350
Wire Wire Line
	5150 4350 5550 4350
$EndSCHEMATC
